…
attr(est, "inferences")
#> # Bootstrap sampling using stratification with apparent sample 
#> # A tibble: 101 × 3
#>    splits           id           estimates       
#>    <list>           <chr>        <list>          
#>  1 <split [150/56]> Bootstrap001 <tibble [3 × 7]>
#>  2 <split [150/59]> Bootstrap002 <tibble [3 × 7]>
#>  3 <split [150/59]> Bootstrap003 <tibble [3 × 7]>
#>  4 <split [150/50]> Bootstrap004 <tibble [3 × 7]>
#>  5 <split [150/52]> Bootstrap005 <tibble [3 × 7]>
#>  6 <split [150/58]> Bootstrap006 <tibble [3 × 7]>
#>  7 <split [150/52]> Bootstrap007 <tibble [3 × 7]>
#>  8 <split [150/51]> Bootstrap008 <tibble [3 × 7]>
#>  9 <split [150/54]> Bootstrap009 <tibble [3 × 7]>
#> 10 <split [150/54]> Bootstrap010 <tibble [3 × 7]>
#> # ℹ 91 more rows
```
…
