Bootstrap and Simulation-Based Inference (Experimental) • marginaleffects
…
est <- avg_comparisons(mod, by = "Species", variables = "Petal.Width") |>
  inferences(method = "rsample", R = 100, strata = "Species")
est
#> 
#>         Term Contrast    Species Estimate   2.5 % 97.5 %
#>  Petal.Width mean(+1)     setosa -0.11025 -0.6411 0.4640
#>  Petal.Width mean(+1) versicolor -0.02006 -0.3275 0.3075
#>  Petal.Width mean(+1)  virginica  0.02159 -0.3593 0.3685
#> 
#> Prediction type:  response 
#> Columns: type, term, contrast, Species, estimate, predicted, predicted_hi, predicted_lo, conf.low, conf.high

attr(est, "inferences")
#> # Bootstrap sampling using stratification with apparent sample 
#> # A tibble: 101 × 3
#>    splits           id           estimates       
#>    <list>           <chr>        <list>          
#>  1 <split [150/48]> Bootstrap001 <tibble [3 × 8]>
#>  2 <split [150/56]> Bootstrap002 <tibble [3 × 8]>
#>  3 <split [150/62]> Bootstrap003 <tibble [3 × 8]>
#>  4 <split [150/47]> Bootstrap004 <tibble [3 × 8]>
#>  5 <split [150/56]> Bootstrap005 <tibble [3 × 8]>
#>  6 <split [150/55]> Bootstrap006 <tibble [3 × 8]>
#>  7 <split [150/47]> Bootstrap007 <tibble [3 × 8]>
#>  8 <split [150/51]> Bootstrap008 <tibble [3 × 8]>
#>  9 <split [150/66]> Bootstrap009 <tibble [3 × 8]>
#> 10 <split [150/44]> Bootstrap010 <tibble [3 × 8]>
#> # … with 91 more rows
…
